827145 780707 468
965794 186944 525
528632 234451 470
502202 73517 449
413149 735404 509
662130 333395 509
593191 186040 470
750770 730891 424
95991 283309 443
136357 348639 443
73041 20661 340
705365 766436 424
274455 605131 470
530512 410651 470
168034 886107 525
818802 804859 406
711831 483110 509
796485 405095 509
798555 263519 509
940151 486165 525
22799 54978 340
696598 412934 509
99119 10186 351
911964 188391 525
927735 205365 525
926663 897479 476
301562 355418 441
844706 622677 525
406816 272750 441
887729 673638 525
421530 295013 449
316443 121522 443
903477 147357 525
259649 215126 443
709819 265937 509
693902 288911 509
489114 414004 444
26203 268869 443
412856 753104 509
588259 184581 470
108966 624364 470
412449 205275 449
973015 687556 525
744833 142931 509
501491 343424 449
467988 161103 449
675318 147087 509
828529 110042 509
54089 371947 443
414502 802895 509
714691 793961 468
517697 958055 525
316549 187382 443
486785 685538 509
699859 233040 509
140852 735888 509
537181 645392 509
87275 602532 470
910261 41129 525
617692 330884 470
561604 803406 509
884419 820682 525
810770 351989 509
245616 908050 525
437469 898416 525
441793 187250 449
71701 851474 525
141063 428089 449
160540 456953 449
335592 344070 366
915023 125341 525
25468 245528 443
226064 1356 386
318398 916008 525
111364 119632 349
821643 52552 509
173415 7500 383
467338 665596 509
39189 78403 351
652376 195587 509
810219 709760 468
436568 769589 509
816829 219726 509
952677 561773 525
985816 1032 525
124361 294381 443
704391 613564 509
278948 104035 443
261121 942785 525
7968 12164 268
104522 806776 509
54070 824310 509
466972 97393 449
289716 211660 443
103251 344448 443
257638 696319 509
363383 285839 441
647465 417885 509
188957 156342 370
756950 416656 509
255201 119638 443
228120 705935 509
823399 318564 509
95978 440008 449
36534 333954 443
123849 898381 525
922038 222021 525
830688 403577 509
804227 449139 509
686393 250256 509
424493 726170 509
465134 409047 449
425273 625978 470
647821 750699 504
623664 700869 509
13961 949356 525
894829 43302 525
862199 71452 525
685687 734574 504
313240 871632 525
21982 413297 449
824641 640400 504
569274 961861 525
202979 252511 443
888871 363191 525
470732 733679 509
10111 928016 525
227315 431461 449
951561 27980 525
632382 927359 525
154957 400711 443
917261 415772 525
756887 632402 504
613200 464821 470
755709 722138 424
89661 966271 525
579144 708412 509
688451 174695 509
934424 144859 525
888055 136579 525
533398 351537 470
594742 604154 403
559930 487251 470
585304 411347 470
439789 852146 525
239855 341681 407
552314 365962 470
592906 725505 509
701244 510154 509
492735 147688 449
297310 983856 525
86028 805212 509
493282 667074 509
167166 261852 443
402014 225931 443
174377 640279 509
233553 615388 470
910456 11624 525
842013 592771 525
501552 880131 525
943432 18335 525
361332 790849 509
664295 689627 442
225152 256201 443
497944 23444 449
911686 715052 525
15684 448254 449
421760 192320 449
40100 552196 470
821056 382108 509
709596 490265 509
637815 664835 429
810858 703508 504
528164 455197 470
325375 332696 353
390692 854236 525
114514 346381 443
165220 410057 449
637004 167328 509
483153 382687 449
279731 969136 525
379093 591434 470
895618 861716 445
384567 583888 470
873031 181785 525
587192 745015 509
147794 46665 375
648177 717644 504
887825 706763 525
237732 869768 525
931019 963109 507
792111 703804 504
607175 4329 470
675805 608438 509
961773 59529 525
862628 371546 525
560841 114627 470
558616 114482 470
707598 155992 509
384687 251051 441
618361 275220 470
657736 187404 509
269480 178865 443
13722 51544 324
354678 630946 509
922196 818817 525
724174 202468 509
144792 140355 375
989471 54372 525
930632 134337 525
177942 480954 449
718186 123393 509
295903 954968 525
329092 592244 470
129171 247352 443
869926 815150 525
227974 548081 470
883896 870457 432
150727 455254 449
957558 288991 525
970016 829271 525
635769 690138 442
714723 650648 504
92255 742036 509
896879 682102 525
209884 397864 443
507541 145333 449
66378 416473 449
518835 738670 509
876816 225278 525
848957 533058 525
132045 486286 449
565846 294971 470
614096 246398 470
408858 859304 525
567018 649851 509
161175 327612 443
846638 234577 525
683037 117259 509
684927 446763 509
417049 717132 509
378180 77682 443
22635 39091 324
702262 446568 509
439823 337396 449
124594 770020 509
156823 979323 525
132867 204497 383
928077 338036 525
420266 480700 444
739264 414058 509
848000 976500 507
699915 192319 509
924252 153636 525
292475 142454 443
707078 942735 525
171349 366829 443
727377 239942 509
385326 15098 443
476004 500126 426
965130 830944 525
138886 463624 449
213900 262097 443
997879 665202 525
