347381 359486 379
287574 165658 443
319910 552323 470
755026 778275 468
41510 272213 443
798248 843405 525
992683 190315 525
44490 744730 509
879786 96973 525
693556 20606 509
122669 833928 509
467499 665422 509
30434 202222 383
975010 255328 525
917137 718703 525
118707 748538 509
436886 903579 525
365794 348521 410
754076 780390 468
557302 333666 470
696437 384977 509
564289 453600 470
349946 758773 509
664698 310588 509
991588 193084 525
884502 292386 525
960294 491169 525
199329 520060 470
838897 36631 525
944744 161482 525
720516 837867 525
106127 767441 509
848887 476407 525
123547 492028 449
328220 401349 441
461804 387915 449
406335 848719 525
411361 2579 449
893377 680654 525
221934 329202 443
395238 271967 441
848986 393853 525
704551 511215 509
556153 734892 509
122410 605138 470
431666 323051 449
870409 94643 525
298405 701755 509
3169 432673 449
828286 594367 509
213402 421110 449
498627 654697 509
70798 450609 449
966949 495967 525
440852 148641 449
43950 290748 443
516785 476812 470
175909 144358 383
394615 755897 509
221855 857099 525
593742 792014 509
657547 171158 509
149098 517577 470
776685 994556 525
119442 150329 375
158593 720419 509
273597 123618 443
910296 626967 525
341086 174892 443
870880 828283 525
291649 287906 389
371295 338750 441
215543 16018 383
213424 316658 443
734886 849921 525
713430 106886 509
942710 49490 525
195694 46561 383
23111 489250 449
368571 532528 470
247428 448347 449
116098 570263 470
271584 322713 389
339135 855578 525
190866 161347 365
589852 737564 509
86173 485578 449
103465 334168 443
482637 772638 509
307350 451823 449
9609 894846 525
796918 284145 509
447239 666435 509
568420 751360 509
117201 861473 525
898050 535040 525
446237 575438 470
627416 23906 509
574240 56842 470
441531 592142 470
887104 293069 525
504600 708975 509
748336 502422 509
941027 566254 525
54504 369009 443
194878 927383 525
350209 668888 509
424237 94175 449
480293 150272 449
248007 344528 407
479471 549707 470
607121 519832 452
880220 853908 432
140094 428297 449
497248 796000 509
151920 915351 525
819006 158907 509
136034 709618 509
175737 299568 443
937944 305072 525
682500 450285 509
789771 50993 509
457718 640429 509
790700 663854 504
175351 567391 470
681092 105835 509
465843 89783 449
292306 920901 525
485165 606925 470
659358 162725 509
385067 968009 525
362795 970942 525
857705 987964 507
204665 107626 383
507914 466338 426
794344 268090 509
971759 455287 525
233052 483599 449
680129 514335 509
24947 553393 470
67427 109399 354
926316 843601 476
196885 846090 525
117977 567471 470
746971 970490 525
451951 973775 525
813582 464913 509
2823 136123 354
557176 117181 470
200077 873489 525
341859 445063 449
564840 827062 509
212808 243413 443
418342 406914 449
101071 625271 470
723736 181412 509
188121 657834 509
980975 591808 525
373299 712180 509
687210 378588 509
259384 414506 449
762036 571947 509
922562 197826 525
176219 525632 470
134961 751451 509
543517 829460 509
296856 914350 525
143716 167814 383
683592 188502 509
39324 129474 354
98528 146311 375
893522 149890 525
288472 681085 509
190191 380246 443
935386 686740 525
608204 466234 470
362505 297983 441
917125 371681 525
527840 484625 470
662925 699050 442
1601 282553 443
468198 460134 444
335592 942649 525
432079 881848 525
475574 246426 449
48237 455267 449
294332 188489 443
699045 896104 525
291532 935844 525
128267 795405 509
384325 305611 441
671778 985922 525
980620 217251 525
840790 520730 525
539553 913351 525
807195 710239 468
160084 382844 443
770588 343277 509
727871 427724 509
273309 659898 509
167204 57717 383
440270 435585 400
674268 349079 509
314268 69004 443
43422 654747 509
804866 29672 509
560257 297947 470
764805 215502 509
143419 807174 509
942917 527676 525
623204 215706 470
950370 618528 525
550818 689652 509
255638 396647 441
690712 175640 509
742954 548122 509
740989 307575 509
611886 11800 470
790028 438748 509
506144 563857 470
356315 902410 525
759871 255655 509
363458 963180 525
283492 608473 470
700623 370853 509
632808 532802 509
483807 313560 449
128818 381826 443
634423 248598 509
221614 935712 525
139437 402368 443
767521 736250 424
873537 977413 507
719517 365546 509
211988 570618 470
847609 955149 507
301530 383117 441
464464 856772 525
179022 449433 449
235661 856931 525
7213 433358 449
74059 762936 509
434619 22295 449
292778 303455 371
596904 883293 525
859701 812630 525
968251 143485 525
309726 537660 470
712979 865794 525
168963 422586 449
516350 68514 470
483730 938277 525
477149 662512 509
999444 861763 507
465263 68473 449
616782 447046 470
770375 122177 509
505182 61745 449
567067 72748 470
226361 9486 386
173138 931132 525
185468 382897 443
62187 541679 470
198691 831301 509
738784 86196 509
158110 953072 525
214925 385929 443
471993 601489 470
785590 851001 525
659514 183208 509
397697 346226 436
370343 438008 449
597878 586111 403
486234 698308 509
321326 547169 470
381116 35060 443
603189 193494 470
403391 636388 509
565709 774600 509
531898 321310 470
523651 469210 470
850121 85865 525
516902 688164 509
510481 230796 449
918894 824453 525
452114 282880 449
844684 353916 525
513540 488975 470
733025 441750 509
630466 667569 442
