985994 234362
450027 677763
12145 441048
262628 331755
378278 819693
275273 10466
772790 906568
697908 463197
107958 433621
368864 291583
702089 485395
973522 458902
503504 326816
172920 698924
361033 130080
21809 96950
373185 335519
136623 332546
866063 438276
170370 787811
589181 175129
511842 626588
369176 386046
277037 191811
395786 433848
284821 228022
806275 980404
747529 397392
347607 255999
403447 295390
230548 690419
896587 233796
559516 803976
813526 276076
667649 749498
123684 39823
952218 642027
169147 536358
906742 779096
770639 217330
898845 421928
702141 506092
491575 328790
147890 654181
702458 989038
30628 958013
539030 768367
251546 560230
66580 878499
612387 897912
557027 328896
449021 468401
144382 41603
431298 64926
702839 283854
127379 573595
348140 910951
593202 606577
142179 812064
146078 285027
725962 615267
129948 694535
488431 523605
329534 460347
355306 443746
908041 126333
929911 129126
148934 96122
594461 700642
596061 357826
464566 261403
415668 459288
298247 404619
565034 207370
937509 557335
918240 599698
253711 179383
417734 43653
53679 42110
876341 831210
989556 463114
651971 981972
646785 759144
677547 747718
848376 859746
153298 322305
29243 528278
949694 330226
988615 976720
590714 219799
682348 729031
849459 520270
103637 738692
672566 230397
95538 245684
617281 763115
388375 662509
497218 882113
548743 331722
300344 394460
799723 718856
149711 805764
566002 920176
934962 23062
113895 727826
164879 535457
533562 991551
911598 911542
590956 210725
474345 897894
759334 241031
4571 366588
754502 872989
10114 819930
811386 350040
411558 392952
526992 852948
203677 496326
495017 921225
883105 169627
746551 219841
609685 971543
889919 462455
110463 91342
374262 540432
246795 628153
182754 211434
318146 699335
361427 630415
635516 799304
563547 780326
680609 217697
185466 121752
996560 394071
423658 543505
700544 679884
265176 503053
713681 124175
450974 200831
515665 756349
996282 948716
389424 703570
902029 717132
248401 498389
864284 955000
499025 118797
278657 19277
692552 801401
300730 725166
619302 431650
461464 489038
634080 764098
788950 790722
950154 69918
283862 873484
453136 580802
584461 277177
727841 652535
6533 46652
88095 690626
964686 306094
68379 809690
172511 376495
132662 290022
531135 742390
509773 729902
894896 438160
76855 761595
555195 312808
856559 904394
547055 945955
929378 809347
569899 676606
934945 526526
527258 484700
955569 326696
502081 623813
854769 949883
807760 1393
348206 527759
181180 763736
742636 55157
240814 912007
106000 401170
315920 748538
63435 156870
971503 919783
815158 17300
554656 747114
551996 737817
388615 831883
869681 431164
137909 988390
519986 824143
905748 789948
122133 995564
593401 151017
274308 221978
156101 744365
969902 703887
942224 603298
824478 312894
130385 57159
730737 151985
979890 382736
17689 310813
983032 104211
700821 396101
746917 546994
7255 288013
158541 912059
188541 729097
317908 328156
255767 441172
701340 334555
566094 943805
224899 116173
81641 526435
990879 750203
159546 91214
822237 977657
848230 723970
408056 567205
973643 609253
457322 147349
293122 476126
897939 356048
365733 720647
