163510 805148
786055 836371
639979 506626
244992 809223
275004 604886
162054 616978
398329 908212
292872 239925
79937 842466
222248 936129
351245 570527
275365 142504
211078 983013
825713 686639
215047 664599
685681 766540
639356 285832
381341 793254
828964 288443
888671 497716
905165 729641
475902 904026
250125 691602
986613 734726
43609 390516
231984 778229
355006 104907
686004 188891
131403 473729
858218 389062
30272 588603
721698 139051
859006 753114
984461 628027
369428 330068
847871 306926
473685 747828
745281 542717
328749 770694
172502 257598
601129 23096
693106 737065
554613 122767
468380 638310
671655 540859
781321 342427
481124 888185
504959 559865
133631 940625
472838 308235
416801 572862
587750 796310
854780 785881
24086 891597
63136 350198
402258 235536
829503 194103
13751 56762
752875 220345
627427 155413
260058 468304
636073 315546
457261 441948
223623 971991
373977 301393
760074 353468
902764 519345
775666 181680
426780 828364
801496 913704
682995 693420
85494 567306
349005 192508
63317 560986
380968 569016
200532 715882
742562 717114
364914 600308
350590 199633
86627 45756
667624 793827
525828 992088
462770 429382
947579 625881
851351 370773
438600 400405
626008 874002
561138 430604
564321 222432
29728 51903
306786 607758
213966 808442
148451 488769
782615 888959
207373 836390
800299 923970
148121 747905
845637 175065
712001 200997
941110 268547
380769 31821
323388 478015
364779 115817
165740 220844
40977 413602
183037 918147
602877 72409
381738 948573
326569 991800
594867 15282
393158 520281
564381 159017
486198 200910
661650 792755
168848 804006
844115 56334
11340 785370
342139 918508
351897 301425
585484 18219
940149 638089
650533 473087
585839 149022
327834 553626
238202 730988
313034 758342
37794 993429
765099 84922
536480 820199
325698 890167
17808 292656
442313 807892
786933 379307
616858 397879
373723 795240
201651 131819
278600 457294
775978 73108
142142 374832
903833 580222
135812 15492
552796 469657
584801 949873
621543 391818
353952 511691
577240 763853
182719 743527
519028 775202
309694 131983
389998 795513
663453 270046
571961 647936
707143 406771
660379 233669
871764 108527
53055 493021
654556 820122
83686 707878
578348 860309
181402 848096
300603 751408
955536 312364
602086 254313
904096 72120
508697 395502
850780 364076
74381 591892
624830 490087
504755 548802
848477 329936
770452 321450
789536 228641
840899 833570
629179 964873
37067 662627
910694 446412
744038 344896
781506 445341
404073 474024
903272 771387
164740 34442
457637 651645
969141 382207
883412 284553
319461 14910
183840 640016
344100 495955
124992 501922
708957 381959
178114 151718
629469 167570
457205 559227
73505 99578
914110 656366
274313 48288
443112 411102
46375 653165
352560 406894
99296 847709
824880 39821
839021 209205
543591 507170
639416 641294
461608 692282
645281 637815
706903 445390
588191 322427
761701 238533
937690 661462
775071 597729
974878 456728
890805 482540
136560 323711
50917 858923
949474 201777
514863 846167
572379 774364
70380 679827
625171 874726
639580 771007
745006 611969
769036 591478
326262 230894
823630 520455
729282 798058
624920 515370
245288 54905
112068 303963
379075 901644
98677 745228
429523 47855
902998 472961
895759 987949
745533 284483
673084 41059
387993 81014
238668 883405
479565 74165
431769 684013
937048 325165
743424 171272
978785 37015
113043 992909
722982 907958
700142 230848
452259 252954
897226 932892
306524 871732
518223 710152
242820 504926
73346 106110
491897 633381
708582 106461
940565 743990
843579 536431
887136 172404
65307 5332
645251 965939
1529 162253
896941 610938
584366 652185
108657 425474
275150 575857
367089 600330
593069 223285
290042 255002
219650 980803
888411 7734
749665 353342
548937 509325
731303 787439
