36804 869581
228154 972100
846665 833571
375986 972455
547056 528422
137462 537366
721270 627359
229198 26697
937215 614245
243624 228435
352880 299323
44493 70439
85242 946230
732639 183553
965275 422682
723409 983087
823991 1271
72696 480116
690586 858231
572425 918472
625361 942713
481060 420358
973785 801941
278981 649313
174204 248958
203289 681478
513008 74754
354868 636918
63203 689457
262893 82269
634013 985452
776684 855573
616906 362346
174052 693763
930522 80118
835416 819039
559019 880870
257542 148761
942715 95790
256272 585459
880855 487159
289950 842291
240140 105459
29679 357685
588395 824808
164031 947245
197240 821560
82080 885742
172428 520817
732301 185698
377282 276413
893450 399544
32673 591799
81519 719128
166334 156520
849332 870733
907012 107111
113609 581829
739575 717251
835320 119622
385816 2292
715526 894715
370889 122065
394489 47496
685379 4188
818774 750984
263607 272295
659965 846174
965153 816771
494390 481464
519246 255869
296133 727576
86833 282673
292104 942454
877412 768836
224350 621702
698492 751555
333641 713024
475535 16965
975115 2017
540713 114887
793878 758191
874270 586630
575135 833389
839947 719369
506297 973478
884689 213395
226274 709776
265878 752318
661388 420189
109295 177368
2404 796042
2408 165408
879229 401280
126513 771073
589736 744285
591765 563594
416810 338334
879283 657470
187315 615336
238896 388544
616874 254058
461042 949906
699017 472870
454106 428142
692279 851116
675778 747581
594898 492335
631658 119641
6722 31054
273374 360869
406431 238752
790678 299490
393532 251984
265375 700188
260193 501523
945275 441686
471075 983079
51892 443255
575710 109834
693949 95442
309221 371872
42545 816235
316981 344771
544847 529334
331342 565254
296728 998561
316046 558643
284664 164614
912640 61988
377255 877901
648311 144245
415058 877838
571853 813282
572031 189896
699049 354103
639316 759589
325699 928223
289375 534459
284165 719052
601481 532275
129933 787068
685445 669127
141824 966938
37078 572678
766530 10678
750903 272362
372084 14328
287883 528633
346749 839886
818174 291877
688718 358492
657945 395311
80902 631324
129153 828386
521262 384733
851834 481655
426905 660907
270665 216182
883602 932499
617046 783668
904388 31011
597535 18793
902735 55589
148003 237563
935747 604192
937028 509107
950132 783608
260631 896016
79758 491047
899681 445605
672911 223539
392165 513534
518761 954975
415668 792544
653477 451307
937090 649995
966959 209065
314211 668623
654782 486514
269735 59637
850042 888188
229815 620221
10928 466978
569256 340893
943181 826700
344524 893912
547812 521365
718314 372545
738726 480432
369306 239453
281615 50685
997141 238857
639833 832711
81429 162696
374837 815174
450549 717206
948649 123062
383711 141073
535828 11431
605961 79467
530931 843745
