153287 774183
706563 466777
890510 196024
274953 631170
226182 812416
416854 147254
140892 342673
746896 881550
522370 750233
663705 31400
196907 972070
833996 465442
830159 385310
546412 334881
510670 611453
710560 43049
963722 261008
785665 638568
272135 92757
152963 694337
240447 9334
510092 372101
245779 159359
383503 77687
750047 310855
882541 961911
859229 737584
683546 152482
290805 371429
775048 137945
475837 674442
782970 884716
833896 431461
188328 921570
30456 834563
238335 606634
537643 819557
247275 875288
374210 836770
913929 48889
565211 658606
933780 776640
56880 427455
501136 153333
248839 530544
200824 648911
338555 380047
498247 69405
86026 568419
741983 169857
820001 946509
451128 991987
888011 272788
488999 232261
983728 301907
116299 134771
563940 458870
921034 144686
275242 59359
383323 202597
858544 759802
550892 493768
270322 553541
398877 774512
962296 116770
98214 847777
61743 577932
318916 649067
653289 638550
651097 431703
838378 101569
387374 320237
758985 783280
696907 841626
410662 968613
821109 47368
127044 219950
951818 91868
811453 691501
949762 691145
872198 50829
607924 613423
20387 397472
408362 213192
93704 343938
71064 972106
151790 614224
329648 786293
548554 61720
451151 265279
460766 66484
932993 165878
685828 290293
686403 555052
187872 807267
356635 569502
725373 979170
56423 337922
526587 410214
747154 446572
120432 964045
328356 683833
663061 277144
116066 684531
18748 368259
440651 285700
247721 708135
493499 484514
763936 551049
753735 686153
339482 167102
804121 228854
949168 505909
204325 731713
385033 398560
431813 930757
150508 757657
411662 983380
67828 474158
102310 224877
905746 773418
109169 773732
727584 266973
678722 320408
466644 357487
820811 891397
927248 30679
45454 440557
109336 780080
522286 224822
315542 10614
35389 526636
164218 932641
74585 429504
127535 526528
856569 383367
768856 489586
526223 567236
605577 939803
977633 464944
810325 610421
105444 919203
632006 853340
194856 537576
933059 490676
478086 54176
134087 447538
801988 610893
178207 276421
738503 690613
945293 758502
857676 677759
484075 624888
736402 851298
659886 845169
739069 941390
760225 582429
119669 531875
430164 952508
338791 92277
369217 659313
584108 216797
126967 98897
678052 270003
497386 438277
924764 577723
143314 572545
303168 352036
563161 31794
667814 934511
878650 456145
291453 963350
752754 763091
607150 445884
245562 754308
303935 386479
252372 84602
822940 810261
908425 408643
525275 182324
169979 808547
919111 908379
468562 746238
714714 1056
391275 943598
408653 487605
893469 282868
744841 666392
691844 611574
984464 710118
388333 578833
29399 274381
621226 170264
488752 976126
71038 779758
311287 580863
241814 996478
117208 720662
712802 174451
91379 96471
958973 152798
974937 147449
916961 541592
908066 523759
557650 684197
426578 254877
435202 182449
789611 200148
575217 212256
268873 988920
890307 941130
250039 317662
432700 941269
481699 357245
122861 199325
281201 288652
155916 876300
459269 44833
854392 683462
172132 228551
604387 995510
885144 370470
30078 674189
430429 370240
239542 375240
963578 936536
122181 929829
776201 11902
512308 880135
669892 91189
901937 166567
564606 459245
516925 726337
619758 744274
684909 999648
632409 544192
238141 413103
462668 267642
560137 856958
46624 643482
495715 613103
375959 949131
567198 360286
965219 743801
764627 509923
869399 313689
270642 913564
