863634 997779 507
341024 228580 443
570234 639545 509
495275 437495 444
241744 318161 407
986791 203695 525
874245 907972 445
413606 768305 509
363708 789734 509
933060 784617 525
607903 382066 470
613832 100877 470
968300 519951 525
742554 623984 509
596111 408505 470
27883 804755 509
412101 212930 449
911251 234547 525
742718 109903 509
686179 190122 509
525686 2251 470
150918 806016 509
103911 970280 525
371988 662346 509
719987 413037 509
136713 731241 509
330203 945734 525
318336 777119 509
738936 399924 509
80015 199736 383
493693 329946 449
638813 987646 525
152098 455909 449
261913 792836 509
192095 112595 383
418848 343416 449
227363 670633 509
597779 648958 509
828947 953950 525
104519 617759 470
495865 133384 449
628976 620339 509
469749 390260 449
679065 552326 509
179287 648360 509
950367 72919 525
937988 565681 525
130782 213664 383
78179 882722 525
325081 488753 449
688152 267542 509
394496 589360 470
38359 630939 509
222349 88424 386
564611 909770 525
522264 758829 509
10833 738646 509
207002 102511 383
796143 5805 509
254714 179554 443
612683 883619 525
255834 56141 443
222392 956369 525
330874 516448 470
579122 319932 470
64024 90865 351
50189 525812 470
890369 773567 525
133336 441740 449
93297 822632 509
664424 400326 509
645704 165565 509
192033 487486 449
758548 985556 525
707106 410852 509
36481 711364 509
211434 807938 509
870787 425934 525
15887 408727 443
728869 830328 468
347995 789674 509
639928 370353 509
175600 241664 443
250581 456555 449
191623 417068 449
104888 53250 351
737529 616544 509
886375 781109 525
446191 609065 470
157301 62985 383
918393 29708 525
14064 649792 509
99852 960714 525
877113 750794 525
799799 479349 509
19741 1077 279
461950 981882 525
817278 291751 509
732150 879984 525
740541 470837 509
564623 667631 509
144259 90033 375
390660 518245 470
793761 823544 468
395506 756696 509
731408 89122 509
15419 233618 443
228411 508015 449
363483 553254 470
394820 45565 443
111260 740686 509
74896 611907 470
313293 766838 509
378013 200282 443
976902 133941 525
576871 747258 509
401773 104814 443
810474 812374 406
939261 999939 507
178718 967088 525
145051 511516 449
384299 870066 525
203550 621348 470
46 851336 525
994508 144327 525
516959 752772 509
998229 371557 525
8520 990263 525
45129 627328 509
928645 612843 525
614729 863025 525
898414 273551 525
89630 329998 443
636577 353747 509
328197 919470 525
383847 906756 525
730350 918827 525
136941 800403 509
914507 892046 476
7410 468744 449
781813 97680 509
737180 543404 509
713420 993437 525
912465 439368 525
688652 199400 509
573463 193487 470
243662 449176 449
927408 426368 525
412550 75874 449
956100 766608 525
275949 447897 449
28217 602456 470
115258 797619 509
101171 152867 375
21172 784217 509
222499 620130 470
403366 307970 441
436798 944831 525
494650 783184 509
751471 366569 509
243795 901407 525
59165 588779 470
66401 393021 443
357988 563419 470
403473 650189 509
50254 973577 525
48492 896171 525
501938 660832 509
743244 817032 468
452478 5572 449
690885 755246 504
818622 981464 525
143557 915490 525
827497 331483 509
178183 972770 525
701611 906563 525
458241 106835 449
91067 423194 449
572067 76312 470
227472 5898 386
530362 390860 470
763196 683992 504
66012 60766 335
587108 997373 525
129083 230054 386
934908 882286 476
386047 261574 441
401835 347375 436
278914 999379 525
511243 877097 525
498715 96142 449
840390 875323 432
852297 112898 525
702056 258679 509
5537 978539 525
470233 872390 525
360676 828145 509
443305 928845 525
727157 829293 468
100399 233321 443
844539 705553 525
145239 182746 383
247852 194717 443
94799 42251 351
409648 119776 443
769691 964514 525
444189 651756 509
503432 307432 449
543191 738592 509
191560 985457 525
193157 943249 525
226320 223749 368
161576 786205 509
189599 890654 525
9707 291934 443
331916 196293 443
575009 175777 470
694293 953577 525
654191 44037 509
747692 786737 468
111300 337694 443
921367 667645 525
860054 738022 525
2579 375201 443
993898 412183 525
637015 243678 509
597900 896519 525
890519 747213 525
20444 178771 383
978207 76079 525
311697 907517 525
908817 53093 525
160881 378147 443
594421 744838 509
868634 712606 525
576794 624867 447
779470 389372 509
804456 763990 468
245124 351777 441
615040 97078 470
242998 328360 407
270608 451507 449
30236 269613 443
928101 77447 525
564340 748830 509
78155 997943 525
482639 919619 525
567229 8105 470
149795 364409 443
352526 534772 470
523231 258872 470
