199020 833198 509
617690 256830 470
24113 706282 509
932464 121457 525
655641 630371 416
866631 600817 525
907968 26720 525
504453 889117 525
242177 920158 525
390695 539271 470
738986 5122 509
591171 684959 509
539985 305878 470
951710 98948 525
894125 96376 525
544994 946856 525
581270 668895 509
201124 975178 525
49884 377396 443
807038 283599 509
627973 5235 509
84972 169173 383
139309 54373 354
230001 858572 525
179113 307101 443
272806 794191 509
761204 948684 525
842273 19498 525
217376 676680 509
794237 768117 437
505217 173565 449
216548 858993 525
37263 314261 443
138157 568501 470
647992 323567 509
705550 844122 525
84549 402070 443
991433 615467 525
635944 829146 504
151688 752396 509
205869 76801 383
258200 692965 509
852878 883312 432
834403 193701 509
720043 34431 509
105452 636334 509
14546 578841 470
664988 14827 509
406810 433583 449
762676 578162 509
56988 398632 443
637639 18882 509
845978 609364 525
716158 276383 509
639981 347122 509
112133 645487 509
854181 447067 525
427412 973492 525
471731 720827 509
522689 815659 509
722390 960640 525
983473 687635 525
336446 455504 449
871236 977766 507
446261 366429 449
665943 853708 525
661264 822764 504
801390 992275 525
768200 860913 525
192230 317075 443
150968 711495 509
520993 465747 470
690167 693492 442
473596 205560 449
379441 613604 470
949411 234108 525
389965 45444 443
986626 974914 427
647324 376153 509
463919 745978 509
738743 314128 509
249734 850517 525
75024 354801 443
375023 367589 392
180195 691043 509
102369 219054 386
862604 57366 525
99334 154430 375
758858 156050 509
368789 119657 443
101211 321139 443
430954 137096 449
551126 837798 509
580947 893056 525
254427 218897 443
410827 534866 470
225995 166549 386
585109 228299 470
590057 48323 470
844592 164820 525
822680 271816 509
571009 22609 470
182211 250034 443
837054 459161 509
759356 983851 525
930998 792793 525
711398 314042 509
713009 314927 509
466538 860193 525
858919 220027 525
764338 87936 509
761196 331088 509
404374 343536 441
320826 457751 449
869565 429601 525
796325 317537 509
251957 794681 509
22494 927 279
955162 724339 525
913392 54534 525
447536 892703 525
64611 873936 525
844849 134909 525
606937 129041 470
225284 564934 470
21829 267137 443
555515 534844 452
396577 110271 443
366649 899150 525
495296 150732 449
454946 643015 509
39432 212817 383
368399 963996 525
754509 423185 509
803222 613506 509
741158 544308 509
303795 422785 449
703939 976805 525
815695 460471 509
720556 89792 509
99281 166526 383
571443 338927 470
438401 980751 525
887861 270113 525
18728 983285 525
309403 319998 384
923788 503130 525
708683 500397 509
547361 957053 525
212865 769408 509
689201 123040 509
112777 256427 443
629041 494907 509
52941 689567 509
973791 592816 525
925890 579603 525
557353 583744 421
38332 828475 509
597928 241274 470
471271 389648 449
65845 486116 449
693304 901542 525
94411 119917 354
838516 454211 525
374281 846545 525
841182 782688 525
821788 795872 468
989170 189311 525
808989 861139 525
194931 395156 443
693823 932182 525
480195 909912 525
217380 69278 386
495504 178408 449
316285 257212 407
80912 758427 509
823295 232183 509
383207 660019 509
471680 553662 470
173680 54035 383
909016 829497 525
11951 818484 509
708566 71368 509
948333 66261 525
676695 405151 509
875370 829929 525
683946 581710 509
231173 738807 509
917901 738064 525
116208 871476 525
958823 66066 525
77291 307995 443
31556 534891 470
447712 479260 444
192615 825671 509
887894 359475 525
849246 984133 507
476129 611215 470
722575 641843 504
200020 741373 509
323276 166888 443
241274 527120 470
937812 676743 525
51484 383814 443
126441 187061 383
235467 159827 443
217103 593618 470
375233 52615 443
75135 124957 354
569546 524475 452
10833 108245 354
630058 727503 504
139208 471140 449
644540 131766 509
855172 380888 525
90411 447758 449
383025 181043 443
309321 278867 389
238333 311200 407
83980 431048 449
141018 47178 354
962191 976595 458
54540 919552 525
542361 671548 509
225348 463054 449
763875 276460 509
737217 535613 509
745417 861079 525
818877 873071 525
316823 350448 441
235103 644744 509
325249 929214 525
23514 588449 470
14970 946335 525
448308 493609 444
